{
	"name": "Hilbert3D",
	"initial": "X",
	"rules": {
			"X": "^<XF^<XFX-F^>>XFX&F+>>XFX-F>X->",
		 },
		 
	"commands": {
		"X": "Null",
		"F": {
				"name": "DrawUpward",
				"arguments": "",
				"varNames":"",
			}
		"+": 
			{
				"name": "TurtleRoll",
				"arguments": "90",
				"varNames":"angle",
			}
		"-": 
			{
				"name": "TurtleRoll",
				"arguments": "-90",
				"varNames":"angle",
			}
		"^": 
			{
				"name": "TurtlePitch",
				"arguments": "90",
				"varNames":"angle",
			}
		"&": 
			{
				"name": "TurtlePitch",
				"arguments": "-90",
				"varNames":"angle",
			}
		"<": 
			{
				"name": "TurtleTurn",
				"arguments": "90",
				"varNames":"angle",
			}
		">": 
			{
				"name": "TurtleTurn",
				"arguments": "-90",
				"varNames":"angle",
			}
		}
}
