{
	"name": "Plant",
	"isPlant": "true",
	"initial": "X",
	"rules": {
			"X": "F-[[X]+X]+F[+FX]-X",
			"F": "FF"
		 },
		 
	"commands": {
		"X": "Null",
		"[": "Push",
		"]": "Pop",
		"F": {
				"name": "DrawUpward",
				"arguments": "",
				"varNames":"",
			}
		"-": 
			{
				"name": "Roll",
				"arguments": "-25",
				"varNames":"angle",
			}
		"+": 
			{
				"name": "Roll",
				"arguments": "25",
				"varNames":"angle",
			}
		}
}
